<?xml version="1.0" encoding="utf-8"?>
<!-- Generator: Adobe Illustrator 24.0.3, SVG Export Plug-In . SVG Version: 6.00 Build 0)  -->
<svg version="1.1" id="Capa_1" xmlns="http://www.w3.org/2000/svg" xmlns:xlink="http://www.w3.org/1999/xlink" x="0px" y="0px"
	 width="138.6px" height="68.9px" viewBox="0 0 138.6 68.9" style="enable-background:new 0 0 138.6 68.9;" xml:space="preserve">
<style type="text/css">
	.st0{fill:#00C1D4;}
</style>
<g>
	<path class="st0" d="M134.8,55.4l-12.5-13.9c1.7-0.7,3.2-1.7,4.6-3c3.3-3,5-6.8,5-11s-1.7-8.1-5-11c-3.2-2.9-7.1-4.3-11.6-4.3
		h-14.4c-0.7,0-1.3,0.6-1.3,1.3v42.2c0,0.7,0.6,1.3,1.3,1.3h5.2c0.7,0,1.3-0.6,1.3-1.3V42.8h5.5l12,13.2c0.5,0.5,1.2,0.8,2,0.8h7.3
		C135,56.9,135.3,56,134.8,55.4z M121.7,32.6c-1.7,1.6-3.8,2.4-6.3,2.4h-7.9V20h7.8c2.5,0,4.6,0.8,6.3,2.4c1.6,1.4,2.4,3.2,2.4,5.2
		C124.2,29.5,123.3,31.2,121.7,32.6z"/>
	<path class="st0" d="M91.8,12.1h-5.5c-0.5,0-0.9,0.3-1.1,0.7l-14.7,28l-14.7-28c-0.2-0.5-0.7-0.7-1.1-0.7h-5.5
		c-0.7,0-1.3,0.6-1.3,1.3v42.2c0,0.7,0.6,1.3,1.3,1.3h5.2c0.7,0,1.3-0.6,1.3-1.3V29.4l13.7,26.1c0.5,0.9,1.8,0.9,2.3,0l13.7-26.1
		v26.2c0,0.7,0.6,1.3,1.3,1.3h5.2c0.7,0,1.3-0.6,1.3-1.3V13.4C93.1,12.7,92.5,12.1,91.8,12.1z"/>
	<path class="st0" d="M38.7,47.2c-0.5-0.5-1.2-0.5-1.7-0.2c-2.8,2.2-6,3.3-9.7,3.3c-4.4,0-8.1-1.5-11.2-4.6s-4.6-6.8-4.6-11.2
		s1.5-8.1,4.6-11.2s6.8-4.6,11.2-4.6c3.7,0,6.8,1.1,9.7,3.3c0.5,0.5,1.3,0.4,1.7-0.2l3.5-3.9c0.5-0.5,0.5-1.4-0.2-1.9l0,0l0,0
		c-4.3-3.4-9.2-5.2-14.8-5.2c-6.5,0-12.2,2.4-16.8,6.9C5.8,22.3,3.5,28,3.5,34.4c0,6.5,2.4,12.2,6.9,16.8c4.6,4.6,10.3,6.9,16.8,6.9
		c5.5,0,10.6-1.7,14.8-5.2c0.6-0.5,0.7-1.4,0.2-1.9L38.7,47.2z"/>
</g>
</svg>
