<?xml version="1.0" encoding="UTF-8" standalone="no"?>
<svg
   xmlns:dc="http://purl.org/dc/elements/1.1/"
   xmlns:cc="http://creativecommons.org/ns#"
   xmlns:rdf="http://www.w3.org/1999/02/22-rdf-syntax-ns#"
   xmlns:svg="http://www.w3.org/2000/svg"
   xmlns="http://www.w3.org/2000/svg"
   xmlns:sodipodi="http://sodipodi.sourceforge.net/DTD/sodipodi-0.dtd"
   xmlns:inkscape="http://www.inkscape.org/namespaces/inkscape"
   xml:space="preserve"
   enable-background="new 0 0 1627.3 1088.8"
   viewBox="0 0 528.44896 736.41317"
   height="736.41321"
   width="528.44897"
   y="0px"
   x="0px"
   id="Capa_1"
   version="1.1"
   inkscape:version="0.91 r13725"
   sodipodi:docname="catalogos.svg"><sodipodi:namedview
     pagecolor="#ffffff"
     bordercolor="#666666"
     borderopacity="1"
     objecttolerance="10"
     gridtolerance="10"
     guidetolerance="10"
     inkscape:pageopacity="0"
     inkscape:pageshadow="2"
     inkscape:window-width="1920"
     inkscape:window-height="1017"
     id="namedview4227"
     showgrid="false"
     inkscape:zoom="0.7797575"
     inkscape:cx="41.94892"
     inkscape:cy="380.50944"
     inkscape:window-x="-8"
     inkscape:window-y="-8"
     inkscape:window-maximized="1"
     inkscape:current-layer="Capa_1"
     fit-margin-top="0"
     fit-margin-left="0"
     fit-margin-right="0"
     fit-margin-bottom="500" /><metadata
     id="metadata4319"><rdf:RDF><cc:Work
         rdf:about=""><dc:format>image/svg+xml</dc:format><dc:type
           rdf:resource="http://purl.org/dc/dcmitype/StillImage" /><dc:title></dc:title></cc:Work></rdf:RDF></metadata><defs
     id="defs4317" /><?xml-stylesheet type="text/css" href="dashboard_instrucciones.css" ?><g
     id="g4145"
     transform="translate(-870.74615,-39.602562)"><flowRoot
       xml:space="preserve"
       id="flowRoot4229"
       style="font-style:normal;font-weight:normal;font-size:40px;line-height:125%;font-family:sans-serif;letter-spacing:0px;word-spacing:0px;fill:#000000;fill-opacity:1;stroke:none;stroke-width:1px;stroke-linecap:butt;stroke-linejoin:miter;stroke-opacity:1"><flowRegion
         id="flowRegion4231"><rect
           id="rect4233"
           width="401.40686"
           height="187.2377"
           x="777.16467"
           y="71.8172" /></flowRegion><flowPara
         id="flowPara4235" /></flowRoot><text
       xml:space="preserve"
       style="font-style:normal;font-weight:normal;font-size:40px;line-height:125%;font-family:sans-serif;letter-spacing:0px;word-spacing:0px;fill:#000000;fill-opacity:1;stroke:none;stroke-width:1px;stroke-linecap:butt;stroke-linejoin:miter;stroke-opacity:1"
       x="869.50104"
       y="202.62711"
       id="text4237"
       sodipodi:linespacing="125%"><tspan
         sodipodi:role="line"
         id="tspan4239"
         x="869.50104"
         y="202.62711"
         style="font-style:normal;font-variant:normal;font-weight:normal;font-stretch:semi-expanded;font-size:50px;font-family:Chiller;-inkscape-font-specification:'Chiller Semi-Expanded'" /><tspan
         sodipodi:role="line"
         x="869.50104"
         y="265.12711"
         style="font-style:normal;font-variant:normal;font-weight:normal;font-stretch:semi-expanded;font-size:50px;font-family:Chiller;-inkscape-font-specification:'Chiller Semi-Expanded'"
         id="tspan4151">Agregue catálogos para iniciar</tspan></text>
</g><path
     id="path4307"
     d="m 399.77915,154.76233 c 0,0 20.7,14 45.3,-4.6 0,0 47.1,-25.7 47.5,-103.899992 0,0 5.4,-9.1 10.8,-2.1 0,0 -4.5,83.999992 -60.7,113.099992 -9.5,4.8 -29.9,10.6 -42.9,-2.5 z"
     inkscape:connector-curvature="0"
     style="fill:#2d2f32" /><path
     id="path4309"
     d="m 487.00465,0.16802067 c -5.4,2.30000003 1.1,24.79999933 -4.9,34.09999933 -2.6,3.9 -6.4,8.1 -13.6,13.7 -1.7,1.3 -3.6,7.999998 2.9,5.6 0,0 14.4,-6.7 19.8,-36.7 0,0 3.3,-3.4 8,2.8 0,0 13.7,17 21,20.1 2.8,1.2 13.1,3.9 5.5,-6.8 -2,-2.9 -9.5,-0.2 -17.7,-12.6 -3.9,-5.8 -16.3,-22.1999993 -21,-20.19999933 z"
     inkscape:connector-curvature="0"
     style="fill:#2d2f32" /></svg>