<?xml version="1.0" encoding="utf-8"?>
<!-- Generator: Adobe Illustrator 15.1.0, SVG Export Plug-In . SVG Version: 6.00 Build 0)  -->
<!DOCTYPE svg PUBLIC "-//W3C//DTD SVG 1.1//EN" "http://www.w3.org/Graphics/SVG/1.1/DTD/svg11.dtd">
<svg version="1.1" id="Capa_1" xmlns="http://www.w3.org/2000/svg" xmlns:xlink="http://www.w3.org/1999/xlink" x="0px" y="0px"
	 width="47.5px" height="47.5px" viewBox="0 0 47.5 47.5" enable-background="new 0 0 47.5 47.5" xml:space="preserve">
<path d="M43.688,22.25h-5.578c-0.7-6.773-6.084-12.158-12.859-12.859V3.812h-3v5.578c-6.775,0.701-12.159,6.085-12.859,12.859H3.812
	v3h5.578c0.699,6.775,6.084,12.16,12.859,12.859v5.578h3v-5.578c6.775-0.699,12.16-6.084,12.859-12.859h5.578V22.25z M25.25,33.527
	v-3.682h-3v3.682c-4.259-0.652-7.625-4.02-8.276-8.277h3.682v-3h-3.682c0.651-4.258,4.018-7.625,8.276-8.275v3.682h3v-3.682
	c4.259,0.65,7.625,4.018,8.276,8.275h-3.682v3h3.682C32.875,29.507,29.509,32.875,25.25,33.527z"/>
</svg>
