<?xml version="1.0" encoding="utf-8"?>
<!-- Generator: Adobe Illustrator 15.1.0, SVG Export Plug-In . SVG Version: 6.00 Build 0)  -->
<!DOCTYPE svg PUBLIC "-//W3C//DTD SVG 1.1//EN" "http://www.w3.org/Graphics/SVG/1.1/DTD/svg11.dtd">
<svg version="1.1" id="Capa_1" xmlns="http://www.w3.org/2000/svg" xmlns:xlink="http://www.w3.org/1999/xlink" x="0px" y="0px"
	 width="85.04px" height="85.04px" viewBox="0 0 85.04 85.04" enable-background="new 0 0 85.04 85.04" xml:space="preserve">
<g>
	<path fill="#FFFFFF" d="M17.589,42.326h3.042c-0.127,1.497-0.662,2.676-1.599,3.543c-0.94,0.869-2.148,1.301-3.625,1.301
		c-1.674,0-2.987-0.559-3.938-1.676c-0.951-1.115-1.425-2.663-1.425-4.633c0-1.966,0.485-3.509,1.458-4.622
		c0.969-1.118,2.306-1.679,4.01-1.679c1.49,0,2.684,0.404,3.588,1.216c0.9,0.81,1.403,1.935,1.508,3.383h-3.063
		c-0.083-0.631-0.3-1.111-0.648-1.44c-0.343-0.333-0.799-0.5-1.363-0.5c-0.762,0-1.333,0.308-1.71,0.922
		c-0.379,0.613-0.567,1.536-0.567,2.765c0,1.136,0.194,2.005,0.589,2.617c0.39,0.609,0.955,0.916,1.688,0.916
		c0.573,0,1.031-0.176,1.378-0.529C17.257,43.555,17.484,43.026,17.589,42.326L17.589,42.326z"/>
	<path fill="#FFFFFF" d="M32.549,46.805v-7.17H31.23v-1.658h1.318v-0.819c0-0.824,0.224-1.428,0.669-1.814
		c0.444-0.387,1.147-0.581,2.106-0.581c0.174,0,0.36,0.002,0.557,0.012c0.195,0.007,0.404,0.023,0.625,0.044v1.876h-0.648
		c-0.365,0-0.609,0.047-0.727,0.139c-0.115,0.091-0.174,0.27-0.174,0.527v0.617h1.549v1.658h-1.53v7.17H32.549L32.549,46.805z
		 M42.926,44.125h2.469c-0.25,0.93-0.752,1.66-1.51,2.188c-0.758,0.529-1.682,0.793-2.773,0.793c-1.339,0-2.399-0.432-3.183-1.287
		c-0.782-0.859-1.174-2.021-1.174-3.49c0-1.444,0.386-2.584,1.156-3.419c0.773-0.834,1.826-1.25,3.166-1.25
		c1.421,0,2.516,0.411,3.29,1.23c0.77,0.821,1.156,1.988,1.156,3.505c0,0.168,0,0.295-0.004,0.379
		c-0.002,0.083-0.012,0.164-0.021,0.239h-6.18c0.034,0.692,0.211,1.213,0.531,1.565c0.319,0.354,0.781,0.529,1.384,0.529
		c0.427,0,0.774-0.082,1.046-0.24C42.551,44.706,42.767,44.461,42.926,44.125L42.926,44.125z M39.318,41.461h3.643
		c-0.023-0.596-0.188-1.048-0.497-1.361c-0.311-0.31-0.756-0.465-1.333-0.465c-0.537,0-0.962,0.158-1.273,0.472
		C39.551,40.418,39.37,40.87,39.318,41.461L39.318,41.461z M53.151,42.442c0-0.887-0.178-1.565-0.529-2.034
		c-0.354-0.469-0.861-0.701-1.533-0.701c-0.656,0-1.158,0.232-1.5,0.697c-0.344,0.466-0.516,1.146-0.516,2.038
		c0,0.835,0.182,1.48,0.541,1.935s0.869,0.682,1.527,0.682c0.625,0,1.113-0.234,1.471-0.699S53.151,43.254,53.151,42.442
		L53.151,42.442z M46.665,50.344V37.977h2.357v1.195c0.355-0.522,0.758-0.898,1.195-1.137c0.439-0.238,0.959-0.358,1.555-0.358
		c1.141,0,2.066,0.43,2.775,1.287c0.709,0.858,1.062,1.987,1.062,3.383c0,1.414-0.354,2.562-1.062,3.439
		c-0.709,0.879-1.625,1.32-2.744,1.32c-0.588,0-1.113-0.121-1.576-0.359s-0.85-0.584-1.154-1.037v4.635H46.665L46.665,50.344z
		 M56.752,46.805v-8.829h2.297v1.511c0.324-0.604,0.701-1.05,1.135-1.333c0.428-0.286,0.943-0.427,1.537-0.427
		c0.096,0,0.172,0,0.227,0.003c0.053,0.003,0.096,0.008,0.133,0.015l0.008,2.394h-0.826c-0.672,0-1.18,0.17-1.521,0.505
		c-0.34,0.335-0.512,0.832-0.512,1.494v4.667H56.752L56.752,46.805z M62.952,36.993v-2.15h2.477v2.15H62.952L62.952,36.993z
		 M62.952,46.805v-8.829h2.477v8.829H62.952L62.952,46.805z M66.577,43.928h2.469c0.023,0.449,0.191,0.785,0.512,1.004
		c0.316,0.219,0.793,0.33,1.43,0.33c0.48,0,0.855-0.078,1.121-0.232c0.264-0.156,0.395-0.373,0.395-0.654
		c0-0.398-0.494-0.701-1.482-0.902c-0.404-0.08-0.723-0.15-0.961-0.211c-1.207-0.292-2.041-0.636-2.508-1.039
		c-0.467-0.398-0.703-0.942-0.703-1.624c0-0.904,0.344-1.619,1.027-2.146c0.682-0.529,1.607-0.794,2.777-0.794
		c1.236,0,2.209,0.265,2.916,0.789c0.707,0.526,1.08,1.263,1.127,2.216h-2.41c-0.016-0.372-0.164-0.66-0.445-0.87
		c-0.279-0.204-0.67-0.308-1.172-0.308c-0.469,0-0.818,0.067-1.049,0.202s-0.344,0.339-0.344,0.609c0,0.353,0.615,0.664,1.846,0.936
		c0.281,0.058,0.506,0.107,0.672,0.146c1.232,0.274,2.074,0.607,2.523,0.999c0.451,0.388,0.678,0.936,0.678,1.647
		c0,1.004-0.369,1.766-1.109,2.291s-1.818,0.789-3.23,0.789c-1.279,0-2.279-0.275-2.998-0.822c-0.721-0.545-1.08-1.301-1.08-2.258
		V43.928L66.577,43.928z"/>
	<path fill-rule="evenodd" clip-rule="evenodd" fill="#FFFFFF" d="M26.45,37.5c2.767,0,5.009,2.142,5.009,4.78
		c0,2.638-2.242,4.779-5.009,4.779c-2.767,0-5.01-2.141-5.01-4.779C21.44,39.642,23.683,37.5,26.45,37.5L26.45,37.5z M26.45,39.152
		c1.812,0,3.28,1.4,3.28,3.128c0,1.728-1.468,3.128-3.28,3.128c-1.81,0-3.279-1.4-3.279-3.128
		C23.17,40.553,24.64,39.152,26.45,39.152L26.45,39.152z"/>
	<path fill-rule="evenodd" clip-rule="evenodd" fill="#FFFFFF" d="M26.45,40.443c1.064,0,1.927,0.822,1.927,1.837
		c0,1.015-0.863,1.839-1.927,1.839c-1.063,0-1.927-0.824-1.927-1.839C24.523,41.266,25.386,40.443,26.45,40.443L26.45,40.443z"/>
	<path fill-rule="evenodd" clip-rule="evenodd" fill="#FFFFFF" d="M21.702,45.432l1.928,1.801l-2.81,2.742
		c-0.607,0.594-1.538,0.674-2.069,0.18l0,0c-0.53-0.496-0.468-1.385,0.139-1.979L21.702,45.432L21.702,45.432z"/>
</g>
</svg>
